best price: 4.500000 by "Minute"
best price: 4.500000 by "Minute"
best price: 4.500000 by "Minute"
best price: 2.700000 by "Minute"
best price: 2.700000 by "Minute"
best price: 2.700000 by "Minute"
best price: 2.700000 by "Minute"
best price: 2.700000 by "Minute"
best price: 2.700000 by "Minute"
